1
Grishaeva A. N.
Cleaner
30
0
200

2
Kozlov I. U.
Driver
33
0
170

3
Vasilyev O. A.
Programmer
44
0
Project #1
0.1
300
500000

4
Krisin V. V.
Programmer
40
0
Project #1
0.1
310
500000

5
Malinov K. N.
Tester
20
0
Project #1
0.1
310
500000

6
Petryuk A. P.
TeamLeader
50
0
Project #1
0.15
330
500000
3
200

7
Vidrin V. L.
Manager
12
0
Project #1
0.2
500000

8
Kostilev I. R.
ProjectManager
29
0
Project #1
0.25
500000
5
300

9
Pojarkin F. J.
Programmer
37
0
Project #2	
0.1
315
500000

10
Shertnev E. T.
Programmer
33
0
Project #2
0.1
320
500000

11
Murzilkin H. Q.
Tester
25
0
Project #2
0.1
315
500000

12
Lososev B. D.
TeamLeader
36
0
Project #2
0.15
330
500000
3
220

13
Besov X. U.
Manager
14
0
Project #2
0.2
500000

14
Pochkin I. E.
ProjectManager
32
0
Project #2
0.25
500000
5
330

15
Fedorov G. A.
SeniorManager
46
0
Project #1, Project #2
0.1
500000
12
300
2

16
Kazulkin R. T.
Programmer
44
0
Project #3
0.1
320
700000

17
Suchkov H. L.
Programmer
35
0
Project #3
0.1
315
700000

18
Varvarov L. M.
Tester
32
0
Project #3
0.1
325
700000

19
Rechnov Y. E.
TeamLeader
36
0
Project #3
0.15
330
700000
3
280

20
Bezrotov P. O.
Manager
11
0
Project #3
0.2
700000
